{
  "news": [
    {
      "title": "Festival Réel",
      "category": "Évènement",
      "date": "2022-06-07",
      "text": "Les équipes du #passCulture sont ravies d'avoir assisté à la 1ère édition du festival Réel les 3,4 & 5 juin à @villeurbanne, monté par des jeunes et pour les jeunes. L'occasion pour 30 envoyés spéciaux du #pass de tenir un stand sur le village et profiter des concerts 🎶",
      "images": [
        "/images/cannes1.jpg",
        "/images/cannes2.jpg",
        "/images/cannes3.jpg",
        "/images/cannes4.jpg"
      ]
    },
    {
      "title": "Utopia",
      "category": "Utilisateurs",
      "date": "2022-06-06",
      "text": "🎬 Retour sur le lancement de #lille3000 avec Anne-Rose et Jenny, deux jeunes utilisatrices du #passCulture 🚀L'opportunité pour nos bénéficiaires de faire le plein de découvertes culturelles autour de la thématique Utopia !"
    },
    {
      "title": "Visite de Rima Abdul Malak",
      "category": "Au bureau",
      "date": "2022-06-03",
      "text": "L'équipe du #passCulture est ravie d’avoir accueilli la ministre de la Culture @RimaAbdulMalak dans ses locaux, ce vendredi 3 juin. Avec l'ensemble des talents œuvrant au quotidien depuis le lancement du pass, nous avons pu échanger sur les enjeux à venir."
    },
    {
      "title": "ABF2022",
      "category": "Acteurs culturels",
      "date": "2022-06-02",
      "text": "#ABF2022 Le pass Culture est présent aujourd’hui et demain à #Metz pour le congrès annuel de @abf_info! Un moment précieux pour échanger avec les professionnels du secteur et les inviter à valoriser leurs projets sur l’application 📚",
      "images": ["/images/ABF2022-1.jpg", "/images/ABF2022-2.jpg"]
    },
    {
      "title": "Louane",
      "category": "Ambassadeurs",
      "date": "2022-05-31",
      "text": "🎶 Les ambassadeurs bordelais du #passCulture ont assisté au concert de @louane et rencontré l'artiste à l'occasion de sa tournée 'Louane en couleurs'."
    },
    {
      "title": "Anniversaire",
      "category": "Ambassadeurs",
      "date": "2022-05-25",
      "text": "1 an de #passCulture, ça représente quoi pour les jeunes ? Un premier festival, une première sortie au théâtre, un tapis rouge, des émotions sur papier comme sur grand écran... Nos ambassadeurs nous dévoilent les expériences culturelles qu'ils ont pu vivre avec le pass ! 🤩"
    },
    {
      "title": "Festival de Cannes",
      "category": "Évènement",
      "date": "2022-05-25",
      "text": "Pour célébrer le #PassCulture qui souffle sa 1ère bougie, 14 ambassadeurs lillois du pass Culture ont eu la chance d'être invités au Festival de Cannes et d'échanger avec la Ministre de la Culture, Rima Abdul Malak avant de monter à ses côtés les marches du Palais des Festivals !",
      "images": [
        "/images/cannes1.jpg",
        "/images/cannes2.jpg",
        "/images/cannes3.jpg",
        "/images/cannes4.jpg"
      ]
    }
  ]
}
